{
  "version": "v4",
  "repo": "borisyankov/DefinitelyTyped",
  "ref": "master",
  "path": "assets/ts/typings",
  "bundle": "assets/ts/typings/tsd.d.ts",
  "installed": {
    "dropboxjs/dropboxjs.d.ts": {
      "commit": "bba33bcb0b363ae41db8517a09d1a4d07828616b"
    },
    "jquery/jquery.d.ts": {
      "commit": "4dd796bb15c51e5bc0efd74605fbc9de46773ca5"
    },
    "angularjs/angular.d.ts": {
      "commit": "4dd796bb15c51e5bc0efd74605fbc9de46773ca5"
    },
    "bootbox/bootbox.d.ts": {
      "commit": "4dd796bb15c51e5bc0efd74605fbc9de46773ca5"
    },
    "angular-ui/angular-ui-router.d.ts": {
      "commit": "4dd796bb15c51e5bc0efd74605fbc9de46773ca5"
    },
    "bootstrap/bootstrap.d.ts": {
      "commit": "4dd796bb15c51e5bc0efd74605fbc9de46773ca5"
    }
  }
}
